qsim_rtl/datapath/transcript
# //  ModelSim DE 2024.2 May 20 2024 Linux 4.18.0-553.32.1.el8_10.x86_64
# //
# // Unpublished work. Copyright 2024 Siemens
# //
# // This material contains trade secrets or otherwise confidential information
# // owned by Siemens Industry Software Inc. or its affiliates (collectively,
# // "SISW"), or its licensors. Access to and use of this information is strictly
# // limited as set forth in the Customer's applicable agreements with SISW.
# //
# // This material may not be copied, distributed, or otherwise disclosed outside
# // of the Customer's facilities without the express written permission of SISW,
# // and may not be used in any way not expressly authorized by SISW.
# //
# do runsim.do
# ** Warning: (vlib-34) Library already exists at "work".
# Errors: 0, Warnings: 1
# Model Technology ModelSim DE vmap 2024.2 Lib Mapping Utility 2024.05 May 20 2024
# vmap work work 
# Modifying modelsim.ini
# Model Technology ModelSim DE vlog 2024.2 Compiler 2024.05 May 20 2024
# Start time: 17:59:27 on Dec 18,2024
# vlog -reportprogress 300 "+acc" -incr ../../rtl/datapath/datapath.v 
# -- Skipping module datapath
# 
# Top level modules:
# 	datapath
# End time: 17:59:27 on Dec 18,2024, Elapsed time: 0:00:00
# Errors: 0, Warnings: 0
# Model Technology ModelSim DE vlog 2024.2 Compiler 2024.05 May 20 2024
# Start time: 17:59:27 on Dec 18,2024
# vlog -reportprogress 300 "+acc" -incr test_datapath.v 
# -- Skipping module test_datapath
# 
# Top level modules:
# 	test_datapath
# End time: 17:59:27 on Dec 18,2024, Elapsed time: 0:00:00
# Errors: 0, Warnings: 0
# Model Technology ModelSim DE vlog 2024.2 Compiler 2024.05 May 20 2024
# Start time: 17:59:27 on Dec 18,2024
# vlog -reportprogress 300 "+acc" -incr ../../rtl/datapath/alu.v 
# -- Skipping module multiplier
# -- Skipping module alu_mac
# 
# Top level modules:
# 	alu_mac
# End time: 17:59:28 on Dec 18,2024, Elapsed time: 0:00:01
# Errors: 0, Warnings: 0
# Model Technology ModelSim DE vlog 2024.2 Compiler 2024.05 May 20 2024
# Start time: 17:59:28 on Dec 18,2024
# vlog -reportprogress 300 "+acc" -incr ../../rtl/datapath/fifo.v 
# -- Skipping module fifo
# 
# Top level modules:
# 	fifo
# End time: 17:59:28 on Dec 18,2024, Elapsed time: 0:00:00
# Errors: 0, Warnings: 0
# Model Technology ModelSim DE vlog 2024.2 Compiler 2024.05 May 20 2024
# Start time: 17:59:28 on Dec 18,2024
# vlog -reportprogress 300 "+acc" -incr ../../rtl/datapath/imem.v 
# -- Skipping module imem
# 
# Top level modules:
# 	imem
# End time: 17:59:28 on Dec 18,2024, Elapsed time: 0:00:00
# Errors: 0, Warnings: 0
# Model Technology ModelSim DE vlog 2024.2 Compiler 2024.05 May 20 2024
# Start time: 17:59:28 on Dec 18,2024
# vlog -reportprogress 300 "+acc" -incr ../../rtl/datapath/cmem.v 
# -- Skipping module cmem
# 
# Top level modules:
# 	cmem
# End time: 17:59:28 on Dec 18,2024, Elapsed time: 0:00:00
# Errors: 0, Warnings: 0
# Model Technology ModelSim DE vlog 2024.2 Compiler 2024.05 May 20 2024
# Start time: 17:59:28 on Dec 18,2024
# vlog -reportprogress 300 "+acc" -incr ../../rtl/datapath/converter.v 
# -- Skipping module converter
# 
# Top level modules:
# 	converter
# End time: 17:59:28 on Dec 18,2024, Elapsed time: 0:00:00
# Errors: 0, Warnings: 0
# ** Warning: (vsim-8690) Ignoring plusarg '+acc' with -novopt in effect.
# vsim "+acc" -t ps -lib work test_datapath 
# Start time: 17:59:28 on Dec 18,2024
# Loading work.test_datapath
# Loading work.datapath
# Loading work.fifo
# Loading work.converter
# Loading work.imem
# Loading work.alu_mac
# Loading work.multiplier
# Time: 0 | clk: 0 | fast_clk: 0 | reset: 1 | write_enable: 0 | read_enable: 0 | input_data: 0000 | fifo_out: xxxx | result:          0 | done: 0
# Time: 3000 | clk: 0 | fast_clk: 1 | reset: 1 | write_enable: 0 | read_enable: 0 | input_data: 0000 | fifo_out: xxxx | result:          0 | done: 0
# Time: 5000 | clk: 1 | fast_clk: 0 | reset: 1 | write_enable: 0 | read_enable: 0 | input_data: 0000 | fifo_out: xxxx | result:          0 | done: 0
# Time: 8000 | clk: 1 | fast_clk: 1 | reset: 1 | write_enable: 0 | read_enable: 0 | input_data: 0000 | fifo_out: xxxx | result:          0 | done: 0
# Time: 10000 | clk: 0 | fast_clk: 0 | reset: 1 | write_enable: 0 | read_enable: 0 | input_data: 0000 | fifo_out: xxxx | result:          0 | done: 0
# Time: 13000 | clk: 0 | fast_clk: 1 | reset: 1 | write_enable: 0 | read_enable: 0 | input_data: 0000 | fifo_out: xxxx | result:          0 | done: 0
# Time: 15000 | clk: 1 | fast_clk: 0 | reset: 1 | write_enable: 0 | read_enable: 0 | input_data: 0000 | fifo_out: xxxx | result:          0 | done: 0
# Time: 18000 | clk: 1 | fast_clk: 1 | reset: 1 | write_enable: 0 | read_enable: 0 | input_data: 0000 | fifo_out: xxxx | result:          0 | done: 0
# Time: 20000 | clk: 0 | fast_clk: 0 | reset: 0 | write_enable: 1 | read_enable: 0 | input_data: 4739 | fifo_out: xxxx | result:          0 | done: 0
# Time: 23000 | clk: 0 | fast_clk: 1 | reset: 0 | write_enable: 1 | read_enable: 0 | input_data: 4739 | fifo_out: xxxx | result:          0 | done: 0
# Time: 25000 | clk: 1 | fast_clk: 0 | reset: 0 | write_enable: 1 | read_enable: 0 | input_data: 4739 | fifo_out: xxxx | result:          0 | done: 0
# Time: 28000 | clk: 1 | fast_clk: 1 | reset: 0 | write_enable: 1 | read_enable: 0 | input_data: 4739 | fifo_out: xxxx | result:          0 | done: 0
# Time: 30000 | clk: 0 | fast_clk: 0 | reset: 0 | write_enable: 1 | read_enable: 0 | input_data: 1f0b | fifo_out: xxxx | result:          0 | done: 0
# Time: 33000 | clk: 0 | fast_clk: 1 | reset: 0 | write_enable: 1 | read_enable: 0 | input_data: 1f0b | fifo_out: xxxx | result:          0 | done: 0
# Time: 35000 | clk: 1 | fast_clk: 0 | reset: 0 | write_enable: 1 | read_enable: 0 | input_data: 1f0b | fifo_out: xxxx | result:          0 | done: 0
# Time: 38000 | clk: 1 | fast_clk: 1 | reset: 0 | write_enable: 1 | read_enable: 0 | input_data: 1f0b | fifo_out: xxxx | result:          0 | done: 0
# Time: 40000 | clk: 0 | fast_clk: 0 | reset: 0 | write_enable: 1 | read_enable: 0 | input_data: 5a8e | fifo_out: xxxx | result:          0 | done: 0
# Time: 43000 | clk: 0 | fast_clk: 1 | reset: 0 | write_enable: 1 | read_enable: 0 | input_data: 5a8e | fifo_out: xxxx | result:          0 | done: 0
# Time: 45000 | clk: 1 | fast_clk: 0 | reset: 0 | write_enable: 1 | read_enable: 0 | input_data: 5a8e | fifo_out: xxxx | result:          0 | done: 0
# Time: 48000 | clk: 1 | fast_clk: 1 | reset: 0 | write_enable: 1 | read_enable: 0 | input_data: 5a8e | fifo_out: xxxx | result:          0 | done: 0
# Time: 50000 | clk: 0 | fast_clk: 0 | reset: 0 | write_enable: 1 | read_enable: 0 | input_data: 0854 | fifo_out: xxxx | result:          0 | done: 0
# Time: 53000 | clk: 0 | fast_clk: 1 | reset: 0 | write_enable: 1 | read_enable: 0 | input_data: 0854 | fifo_out: xxxx | result:          0 | done: 0
# Time: 55000 | clk: 1 | fast_clk: 0 | reset: 0 | write_enable: 1 | read_enable: 0 | input_data: 0854 | fifo_out: xxxx | result:          0 | done: 0
# Time: 58000 | clk: 1 | fast_clk: 1 | reset: 0 | write_enable: 1 | read_enable: 0 | input_data: 0854 | fifo_out: xxxx | result:          0 | done: 0
# Time: 60000 | clk: 0 | fast_clk: 0 | reset: 0 | write_enable: 1 | read_enable: 0 | input_data: 81c6 | fifo_out: xxxx | result:          0 | done: 0
# Time: 63000 | clk: 0 | fast_clk: 1 | reset: 0 | write_enable: 1 | read_enable: 0 | input_data: 81c6 | fifo_out: xxxx | result:          0 | done: 0
# Time: 65000 | clk: 1 | fast_clk: 0 | reset: 0 | write_enable: 1 | read_enable: 0 | input_data: 81c6 | fifo_out: xxxx | result:          0 | done: 0
# Time: 68000 | clk: 1 | fast_clk: 1 | reset: 0 | write_enable: 1 | read_enable: 0 | input_data: 81c6 | fifo_out: xxxx | result:          0 | done: 0
# Time: 70000 | clk: 0 | fast_clk: 0 | reset: 0 | write_enable: 1 | read_enable: 0 | input_data: e06c | fifo_out: xxxx | result:          0 | done: 0
# Time: 73000 | clk: 0 | fast_clk: 1 | reset: 0 | write_enable: 1 | read_enable: 0 | input_data: e06c | fifo_out: xxxx | result:          0 | done: 0
# Time: 75000 | clk: 1 | fast_clk: 0 | reset: 0 | write_enable: 1 | read_enable: 0 | input_data: e06c | fifo_out: xxxx | result:          0 | done: 0
# Time: 78000 | clk: 1 | fast_clk: 1 | reset: 0 | write_enable: 1 | read_enable: 0 | input_data: e06c | fifo_out: xxxx | result:          0 | done: 0
# Time: 80000 | clk: 0 | fast_clk: 0 | reset: 0 | write_enable: 1 | read_enable: 0 | input_data: 3728 | fifo_out: xxxx | result:          0 | done: 0
# Time: 83000 | clk: 0 | fast_clk: 1 | reset: 0 | write_enable: 1 | read_enable: 0 | input_data: 3728 | fifo_out: xxxx | result:          0 | done: 0
# Time: 85000 | clk: 1 | fast_clk: 0 | reset: 0 | write_enable: 1 | read_enable: 0 | input_data: 3728 | fifo_out: xxxx | result:          0 | done: 0
# Time: 88000 | clk: 1 | fast_clk: 1 | reset: 0 | write_enable: 1 | read_enable: 0 | input_data: 3728 | fifo_out: xxxx | result:          0 | done: 0
# Time: 90000 | clk: 0 | fast_clk: 0 | reset: 0 | write_enable: 1 | read_enable: 0 | input_data: db49 | fifo_out: xxxx | result:          0 | done: 0
# Time: 93000 | clk: 0 | fast_clk: 1 | reset: 0 | write_enable: 1 | read_enable: 0 | input_data: db49 | fifo_out: xxxx | result:          0 | done: 0
# Time: 95000 | clk: 1 | fast_clk: 0 | reset: 0 | write_enable: 1 | read_enable: 0 | input_data: db49 | fifo_out: xxxx | result:          0 | done: 0
# Time: 98000 | clk: 1 | fast_clk: 1 | reset: 0 | write_enable: 1 | read_enable: 0 | input_data: db49 | fifo_out: xxxx | result:          0 | done: 0
# Time: 100000 | clk: 0 | fast_clk: 0 | reset: 0 | write_enable: 0 | read_enable: 1 | input_data: db49 | fifo_out: xxxx | result:          0 | done: 0
# Time: 103000 | clk: 0 | fast_clk: 1 | reset: 0 | write_enable: 0 | read_enable: 1 | input_data: db49 | fifo_out: 4739 | result:          0 | done: 0
# Time: 105000 | clk: 1 | fast_clk: 0 | reset: 0 | write_enable: 0 | read_enable: 1 | input_data: db49 | fifo_out: 4739 | result:          0 | done: 0
# Time: 108000 | clk: 1 | fast_clk: 1 | reset: 0 | write_enable: 0 | read_enable: 1 | input_data: db49 | fifo_out: 1f0b | result:          0 | done: 0
# Time: 110000 | clk: 0 | fast_clk: 0 | reset: 0 | write_enable: 0 | read_enable: 1 | input_data: db49 | fifo_out: 1f0b | result:          0 | done: 0
# Time: 113000 | clk: 0 | fast_clk: 1 | reset: 0 | write_enable: 0 | read_enable: 1 | input_data: db49 | fifo_out: 5a8e | result:          0 | done: 0
# Time: 115000 | clk: 1 | fast_clk: 0 | reset: 0 | write_enable: 0 | read_enable: 1 | input_data: db49 | fifo_out: 5a8e | result:          0 | done: 0
# Time: 118000 | clk: 1 | fast_clk: 1 | reset: 0 | write_enable: 0 | read_enable: 1 | input_data: db49 | fifo_out: 0854 | result:          0 | done: 0
# Time: 120000 | clk: 0 | fast_clk: 0 | reset: 0 | write_enable: 0 | read_enable: 1 | input_data: db49 | fifo_out: 0854 | result:          0 | done: 0
# Time: 123000 | clk: 0 | fast_clk: 1 | reset: 0 | write_enable: 0 | read_enable: 1 | input_data: db49 | fifo_out: 81c6 | result:          0 | done: 0
# Time: 125000 | clk: 1 | fast_clk: 0 | reset: 0 | write_enable: 0 | read_enable: 1 | input_data: db49 | fifo_out: 81c6 | result:          0 | done: 0
# Time: 128000 | clk: 1 | fast_clk: 1 | reset: 0 | write_enable: 0 | read_enable: 1 | input_data: db49 | fifo_out: e06c | result:          0 | done: 0
# Time: 130000 | clk: 0 | fast_clk: 0 | reset: 0 | write_enable: 0 | read_enable: 1 | input_data: db49 | fifo_out: e06c | result:          0 | done: 0
# Time: 133000 | clk: 0 | fast_clk: 1 | reset: 0 | write_enable: 0 | read_enable: 1 | input_data: db49 | fifo_out: 3728 | result:          0 | done: 0
# Time: 135000 | clk: 1 | fast_clk: 0 | reset: 0 | write_enable: 0 | read_enable: 1 | input_data: db49 | fifo_out: 3728 | result:          0 | done: 0
# Time: 138000 | clk: 1 | fast_clk: 1 | reset: 0 | write_enable: 0 | read_enable: 1 | input_data: db49 | fifo_out: db49 | result:          0 | done: 0
# Time: 140000 | clk: 0 | fast_clk: 0 | reset: 0 | write_enable: 0 | read_enable: 1 | input_data: db49 | fifo_out: db49 | result:          0 | done: 0
# Time: 143000 | clk: 0 | fast_clk: 1 | reset: 0 | write_enable: 0 | read_enable: 1 | input_data: db49 | fifo_out: db49 | result:          0 | done: 0
# Time: 145000 | clk: 1 | fast_clk: 0 | reset: 0 | write_enable: 0 | read_enable: 1 | input_data: db49 | fifo_out: db49 | result:          0 | done: 0
# Time: 148000 | clk: 1 | fast_clk: 1 | reset: 0 | write_enable: 0 | read_enable: 1 | input_data: db49 | fifo_out: db49 | result:          0 | done: 0
# Time: 150000 | clk: 0 | fast_clk: 0 | reset: 0 | write_enable: 0 | read_enable: 1 | input_data: db49 | fifo_out: db49 | result:          0 | done: 0
# Time: 153000 | clk: 0 | fast_clk: 1 | reset: 0 | write_enable: 0 | read_enable: 1 | input_data: db49 | fifo_out: db49 | result:          0 | done: 0
# Time: 155000 | clk: 1 | fast_clk: 0 | reset: 0 | write_enable: 0 | read_enable: 1 | input_data: db49 | fifo_out: db49 | result:          0 | done: 0
# Time: 158000 | clk: 1 | fast_clk: 1 | reset: 0 | write_enable: 0 | read_enable: 1 | input_data: db49 | fifo_out: db49 | result:          0 | done: 0
# Time: 160000 | clk: 0 | fast_clk: 0 | reset: 0 | write_enable: 0 | read_enable: 1 | input_data: db49 | fifo_out: db49 | result:          0 | done: 0
# Time: 163000 | clk: 0 | fast_clk: 1 | reset: 0 | write_enable: 0 | read_enable: 1 | input_data: db49 | fifo_out: db49 | result:          0 | done: 0
# Time: 165000 | clk: 1 | fast_clk: 0 | reset: 0 | write_enable: 0 | read_enable: 1 | input_data: db49 | fifo_out: db49 | result:          0 | done: 0
# Time: 168000 | clk: 1 | fast_clk: 1 | reset: 0 | write_enable: 0 | read_enable: 1 | input_data: db49 | fifo_out: db49 | result:          0 | done: 0
# Time: 170000 | clk: 0 | fast_clk: 0 | reset: 0 | write_enable: 0 | read_enable: 1 | input_data: db49 | fifo_out: db49 | result:          0 | done: 0
# Time: 173000 | clk: 0 | fast_clk: 1 | reset: 0 | write_enable: 0 | read_enable: 1 | input_data: db49 | fifo_out: db49 | result:          0 | done: 0
# Time: 175000 | clk: 1 | fast_clk: 0 | reset: 0 | write_enable: 0 | read_enable: 1 | input_data: db49 | fifo_out: db49 | result:          0 | done: 0
# Time: 178000 | clk: 1 | fast_clk: 1 | reset: 0 | write_enable: 0 | read_enable: 1 | input_data: db49 | fifo_out: db49 | result:          0 | done: 0
# Time: 180000 | clk: 0 | fast_clk: 0 | reset: 0 | write_enable: 0 | read_enable: 0 | input_data: db49 | fifo_out: db49 | result:          0 | done: 0
# Time: 183000 | clk: 0 | fast_clk: 1 | reset: 0 | write_enable: 0 | read_enable: 0 | input_data: db49 | fifo_out: db49 | result:          0 | done: 0
# Time: 185000 | clk: 1 | fast_clk: 0 | reset: 0 | write_enable: 0 | read_enable: 0 | input_data: db49 | fifo_out: db49 | result:          0 | done: 0
# Time: 188000 | clk: 1 | fast_clk: 1 | reset: 0 | write_enable: 0 | read_enable: 0 | input_data: db49 | fifo_out: db49 | result:          0 | done: 0
# Time: 190000 | clk: 0 | fast_clk: 0 | reset: 0 | write_enable: 0 | read_enable: 0 | input_data: db49 | fifo_out: db49 | result:          0 | done: 0
# Time: 193000 | clk: 0 | fast_clk: 1 | reset: 0 | write_enable: 0 | read_enable: 0 | input_data: db49 | fifo_out: db49 | result:          0 | done: 0
# Time: 195000 | clk: 1 | fast_clk: 0 | reset: 0 | write_enable: 0 | read_enable: 0 | input_data: db49 | fifo_out: db49 | result:          0 | done: 0
# Time: 198000 | clk: 1 | fast_clk: 1 | reset: 0 | write_enable: 0 | read_enable: 0 | input_data: db49 | fifo_out: db49 | result:          0 | done: 0
# Time: 200000 | clk: 0 | fast_clk: 0 | reset: 0 | write_enable: 0 | read_enable: 0 | input_data: db49 | fifo_out: db49 | result:          0 | done: 0
# Time: 203000 | clk: 0 | fast_clk: 1 | reset: 0 | write_enable: 0 | read_enable: 0 | input_data: db49 | fifo_out: db49 | result:          0 | done: 0
# Time: 205000 | clk: 1 | fast_clk: 0 | reset: 0 | write_enable: 0 | read_enable: 0 | input_data: db49 | fifo_out: db49 | result:          0 | done: 0
# Time: 208000 | clk: 1 | fast_clk: 1 | reset: 0 | write_enable: 0 | read_enable: 0 | input_data: db49 | fifo_out: db49 | result:          0 | done: 0
# Time: 210000 | clk: 0 | fast_clk: 0 | reset: 0 | write_enable: 0 | read_enable: 0 | input_data: db49 | fifo_out: db49 | result:          0 | done: 0
# Time: 213000 | clk: 0 | fast_clk: 1 | reset: 0 | write_enable: 0 | read_enable: 0 | input_data: db49 | fifo_out: db49 | result:          0 | done: 0
# Time: 215000 | clk: 1 | fast_clk: 0 | reset: 0 | write_enable: 0 | read_enable: 0 | input_data: db49 | fifo_out: db49 | result:          0 | done: 0
# Time: 218000 | clk: 1 | fast_clk: 1 | reset: 0 | write_enable: 0 | read_enable: 0 | input_data: db49 | fifo_out: db49 | result:          0 | done: 0
# Time: 220000 | clk: 0 | fast_clk: 0 | reset: 0 | write_enable: 0 | read_enable: 0 | input_data: db49 | fifo_out: db49 | result:          0 | done: 0
# Time: 223000 | clk: 0 | fast_clk: 1 | reset: 0 | write_enable: 0 | read_enable: 0 | input_data: db49 | fifo_out: db49 | result:          0 | done: 0
# Time: 225000 | clk: 1 | fast_clk: 0 | reset: 0 | write_enable: 0 | read_enable: 0 | input_data: db49 | fifo_out: db49 | result:          0 | done: 0
# Time: 228000 | clk: 1 | fast_clk: 1 | reset: 0 | write_enable: 0 | read_enable: 0 | input_data: db49 | fifo_out: db49 | result:          0 | done: 0
# Time: 230000 | clk: 0 | fast_clk: 0 | reset: 0 | write_enable: 0 | read_enable: 0 | input_data: db49 | fifo_out: db49 | result:          0 | done: 0
# Time: 233000 | clk: 0 | fast_clk: 1 | reset: 0 | write_enable: 0 | read_enable: 0 | input_data: db49 | fifo_out: db49 | result:          0 | done: 0
# Time: 235000 | clk: 1 | fast_clk: 0 | reset: 0 | write_enable: 0 | read_enable: 0 | input_data: db49 | fifo_out: db49 | result:          0 | done: 0
# Time: 238000 | clk: 1 | fast_clk: 1 | reset: 0 | write_enable: 0 | read_enable: 0 | input_data: db49 | fifo_out: db49 | result:          0 | done: 0
# Time: 240000 | clk: 0 | fast_clk: 0 | reset: 0 | write_enable: 0 | read_enable: 0 | input_data: db49 | fifo_out: db49 | result:          0 | done: 0
# Time: 243000 | clk: 0 | fast_clk: 1 | reset: 0 | write_enable: 0 | read_enable: 0 | input_data: db49 | fifo_out: db49 | result:          0 | done: 0
# Time: 245000 | clk: 1 | fast_clk: 0 | reset: 0 | write_enable: 0 | read_enable: 0 | input_data: db49 | fifo_out: db49 | result:          0 | done: 0
# Time: 248000 | clk: 1 | fast_clk: 1 | reset: 0 | write_enable: 0 | read_enable: 0 | input_data: db49 | fifo_out: db49 | result:          0 | done: 0
# Time: 250000 | clk: 0 | fast_clk: 0 | reset: 0 | write_enable: 0 | read_enable: 0 | input_data: db49 | fifo_out: db49 | result:          0 | done: 0
# Time: 253000 | clk: 0 | fast_clk: 1 | reset: 0 | write_enable: 0 | read_enable: 0 | input_data: db49 | fifo_out: db49 | result:          0 | done: 0
# Time: 255000 | clk: 1 | fast_clk: 0 | reset: 0 | write_enable: 0 | read_enable: 0 | input_data: db49 | fifo_out: db49 | result:          0 | done: 0
# Time: 258000 | clk: 1 | fast_clk: 1 | reset: 0 | write_enable: 0 | read_enable: 0 | input_data: db49 | fifo_out: db49 | result:          0 | done: 0
# Time: 260000 | clk: 0 | fast_clk: 0 | reset: 0 | write_enable: 0 | read_enable: 0 | input_data: db49 | fifo_out: db49 | result:          0 | done: 0
# Time: 263000 | clk: 0 | fast_clk: 1 | reset: 0 | write_enable: 0 | read_enable: 0 | input_data: db49 | fifo_out: db49 | result:          0 | done: 0
# Time: 265000 | clk: 1 | fast_clk: 0 | reset: 0 | write_enable: 0 | read_enable: 0 | input_data: db49 | fifo_out: db49 | result:          0 | done: 0
# Time: 268000 | clk: 1 | fast_clk: 1 | reset: 0 | write_enable: 0 | read_enable: 0 | input_data: db49 | fifo_out: db49 | result:          0 | done: 0
# Time: 270000 | clk: 0 | fast_clk: 0 | reset: 0 | write_enable: 0 | read_enable: 0 | input_data: db49 | fifo_out: db49 | result:          0 | done: 0
# Time: 273000 | clk: 0 | fast_clk: 1 | reset: 0 | write_enable: 0 | read_enable: 0 | input_data: db49 | fifo_out: db49 | result:          0 | done: 0
# Time: 275000 | clk: 1 | fast_clk: 0 | reset: 0 | write_enable: 0 | read_enable: 0 | input_data: db49 | fifo_out: db49 | result:          0 | done: 0
# Time: 278000 | clk: 1 | fast_clk: 1 | reset: 0 | write_enable: 0 | read_enable: 0 | input_data: db49 | fifo_out: db49 | result:          0 | done: 0
# Time: 280000 | clk: 0 | fast_clk: 0 | reset: 0 | write_enable: 0 | read_enable: 0 | input_data: db49 | fifo_out: db49 | result:          0 | done: 0
# Time: 283000 | clk: 0 | fast_clk: 1 | reset: 0 | write_enable: 0 | read_enable: 0 | input_data: db49 | fifo_out: db49 | result:          0 | done: 0
# Time: 285000 | clk: 1 | fast_clk: 0 | reset: 0 | write_enable: 0 | read_enable: 0 | input_data: db49 | fifo_out: db49 | result:          0 | done: 0
# Time: 288000 | clk: 1 | fast_clk: 1 | reset: 0 | write_enable: 0 | read_enable: 0 | input_data: db49 | fifo_out: db49 | result:          0 | done: 0
# Time: 290000 | clk: 0 | fast_clk: 0 | reset: 0 | write_enable: 0 | read_enable: 0 | input_data: db49 | fifo_out: db49 | result:          0 | done: 0
# Time: 293000 | clk: 0 | fast_clk: 1 | reset: 0 | write_enable: 0 | read_enable: 0 | input_data: db49 | fifo_out: db49 | result:          0 | done: 0
# Time: 295000 | clk: 1 | fast_clk: 0 | reset: 0 | write_enable: 0 | read_enable: 0 | input_data: db49 | fifo_out: db49 | result:          0 | done: 0
# Time: 298000 | clk: 1 | fast_clk: 1 | reset: 0 | write_enable: 0 | read_enable: 0 | input_data: db49 | fifo_out: db49 | result:          0 | done: 0
# Time: 300000 | clk: 0 | fast_clk: 0 | reset: 0 | write_enable: 0 | read_enable: 0 | input_data: db49 | fifo_out: db49 | result:          0 | done: 0
# Time: 303000 | clk: 0 | fast_clk: 1 | reset: 0 | write_enable: 0 | read_enable: 0 | input_data: db49 | fifo_out: db49 | result:          0 | done: 0
# Time: 305000 | clk: 1 | fast_clk: 0 | reset: 0 | write_enable: 0 | read_enable: 0 | input_data: db49 | fifo_out: db49 | result:          0 | done: 0
# Time: 308000 | clk: 1 | fast_clk: 1 | reset: 0 | write_enable: 0 | read_enable: 0 | input_data: db49 | fifo_out: db49 | result:          0 | done: 0
# Time: 310000 | clk: 0 | fast_clk: 0 | reset: 0 | write_enable: 0 | read_enable: 0 | input_data: db49 | fifo_out: db49 | result:          0 | done: 0
# Time: 313000 | clk: 0 | fast_clk: 1 | reset: 0 | write_enable: 0 | read_enable: 0 | input_data: db49 | fifo_out: db49 | result:          0 | done: 0
# Time: 315000 | clk: 1 | fast_clk: 0 | reset: 0 | write_enable: 0 | read_enable: 0 | input_data: db49 | fifo_out: db49 | result:          0 | done: 0
# Time: 318000 | clk: 1 | fast_clk: 1 | reset: 0 | write_enable: 0 | read_enable: 0 | input_data: db49 | fifo_out: db49 | result:          0 | done: 0
# Time: 320000 | clk: 0 | fast_clk: 0 | reset: 0 | write_enable: 0 | read_enable: 0 | input_data: db49 | fifo_out: db49 | result:          0 | done: 0
# Time: 323000 | clk: 0 | fast_clk: 1 | reset: 0 | write_enable: 0 | read_enable: 0 | input_data: db49 | fifo_out: db49 | result:          0 | done: 0
# Time: 325000 | clk: 1 | fast_clk: 0 | reset: 0 | write_enable: 0 | read_enable: 0 | input_data: db49 | fifo_out: db49 | result:          0 | done: 0
# Time: 328000 | clk: 1 | fast_clk: 1 | reset: 0 | write_enable: 0 | read_enable: 0 | input_data: db49 | fifo_out: db49 | result:          0 | done: 0
# Time: 330000 | clk: 0 | fast_clk: 0 | reset: 0 | write_enable: 0 | read_enable: 0 | input_data: db49 | fifo_out: db49 | result:          0 | done: 0
# Time: 333000 | clk: 0 | fast_clk: 1 | reset: 0 | write_enable: 0 | read_enable: 0 | input_data: db49 | fifo_out: db49 | result:          0 | done: 0
# Time: 335000 | clk: 1 | fast_clk: 0 | reset: 0 | write_enable: 0 | read_enable: 0 | input_data: db49 | fifo_out: db49 | result:          0 | done: 0
# Time: 338000 | clk: 1 | fast_clk: 1 | reset: 0 | write_enable: 0 | read_enable: 0 | input_data: db49 | fifo_out: db49 | result:          0 | done: 1
# Time: 340000 | clk: 0 | fast_clk: 0 | reset: 0 | write_enable: 0 | read_enable: 0 | input_data: db49 | fifo_out: db49 | result:          0 | done: 1
# Time: 343000 | clk: 0 | fast_clk: 1 | reset: 0 | write_enable: 0 | read_enable: 0 | input_data: db49 | fifo_out: db49 | result:          0 | done: 0
# Time: 345000 | clk: 1 | fast_clk: 0 | reset: 0 | write_enable: 0 | read_enable: 0 | input_data: db49 | fifo_out: db49 | result:          0 | done: 0
# Time: 348000 | clk: 1 | fast_clk: 1 | reset: 0 | write_enable: 0 | read_enable: 0 | input_data: db49 | fifo_out: db49 | result:          0 | done: 0
# Time: 350000 | clk: 0 | fast_clk: 0 | reset: 0 | write_enable: 0 | read_enable: 0 | input_data: db49 | fifo_out: db49 | result:          0 | done: 0
# Time: 353000 | clk: 0 | fast_clk: 1 | reset: 0 | write_enable: 0 | read_enable: 0 | input_data: db49 | fifo_out: db49 | result:          0 | done: 0
# Time: 355000 | clk: 1 | fast_clk: 0 | reset: 0 | write_enable: 0 | read_enable: 0 | input_data: db49 | fifo_out: db49 | result:          0 | done: 0
# Time: 358000 | clk: 1 | fast_clk: 1 | reset: 0 | write_enable: 0 | read_enable: 0 | input_data: db49 | fifo_out: db49 | result:          0 | done: 0
# Time: 360000 | clk: 0 | fast_clk: 0 | reset: 0 | write_enable: 0 | read_enable: 0 | input_data: db49 | fifo_out: db49 | result:          0 | done: 0
# Time: 363000 | clk: 0 | fast_clk: 1 | reset: 0 | write_enable: 0 | read_enable: 0 | input_data: db49 | fifo_out: db49 | result:          0 | done: 0
# Time: 365000 | clk: 1 | fast_clk: 0 | reset: 0 | write_enable: 0 | read_enable: 0 | input_data: db49 | fifo_out: db49 | result:          0 | done: 0
# Time: 368000 | clk: 1 | fast_clk: 1 | reset: 0 | write_enable: 0 | read_enable: 0 | input_data: db49 | fifo_out: db49 | result:          0 | done: 0
# Time: 370000 | clk: 0 | fast_clk: 0 | reset: 0 | write_enable: 0 | read_enable: 0 | input_data: db49 | fifo_out: db49 | result:          0 | done: 0
# Time: 373000 | clk: 0 | fast_clk: 1 | reset: 0 | write_enable: 0 | read_enable: 0 | input_data: db49 | fifo_out: db49 | result:          0 | done: 0
# Time: 375000 | clk: 1 | fast_clk: 0 | reset: 0 | write_enable: 0 | read_enable: 0 | input_data: db49 | fifo_out: db49 | result:          0 | done: 0
# Time: 378000 | clk: 1 | fast_clk: 1 | reset: 0 | write_enable: 0 | read_enable: 0 | input_data: db49 | fifo_out: db49 | result:          0 | done: 0
# MAC Operation Not Completed!
# ** Note: $finish    : /user/stud/fall24/aak2250/ALD/qsim_rtl/datapath/test_datapath.v(99)
#    Time: 380 ns  Iteration: 0  Instance: /test_datapath
# 1
# Break in Module test_datapath at /user/stud/fall24/aak2250/ALD/qsim_rtl/datapath/test_datapath.v line 99
# End time: 18:00:18 on Dec 18,2024, Elapsed time: 0:00:50
# Errors: 0, Warnings: 1
