qsim_rtl/control/test_control_waveform.vcd
$date
	Tue Dec 17 23:18:45 2024
$end
$version
	ModelSim Version 2024.2
$end
$timescale
	1ps
$end

$scope module test_control $end
$var reg 1 ! clk $end
$var reg 1 " fast_clk $end
$var reg 1 # reset $end
$var reg 1 $ fifo_full $end
$var reg 1 % fifo_empty $end
$var reg 1 & mac_done $end
$var wire 1 ' write_enable $end
$var wire 1 ( read_enable $end
$var wire 1 ) shift_enable $end
$var wire 1 * start_mac $end
$var wire 1 + done $end

$scope module uut $end
$var wire 1 , clk $end
$var wire 1 - fast_clk $end
$var wire 1 . reset $end
$var wire 1 / fifo_full $end
$var wire 1 0 fifo_empty $end
$var wire 1 1 mac_done $end
$var reg 1 2 write_enable $end
$var reg 1 3 read_enable $end
$var reg 1 4 shift_enable $end
$var reg 1 5 start_mac $end
$var reg 1 6 done $end
$var reg 1 7 reset_sync1_clk $end
$var reg 1 8 reset_sync2_clk $end
$var wire 1 9 synced_reset_clk $end
$var reg 1 : reset_sync1_fast $end
$var reg 1 ; reset_sync2_fast $end
$var wire 1 < synced_reset_fast $end
$var reg 2 = write_state [1:0] $end
$var reg 2 > next_write_state [1:0] $end
$var reg 3 ? read_state [2:0] $end
$var reg 3 @ next_read_state [2:0] $end
$upscope $end
$upscope $end
$enddefinitions $end
#0
$dumpvars
0!
0"
1#
0$
1%
0&
x2
x3
x4
x5
x6
x7
x8
x:
x;
bx =
b0 >
bx ?
b0 @
x'
x(
x)
x*
x+
x9
x<
0,
0-
1.
0/
10
01
$end
#3000
1"
1-
1:
b0 ?
06
0+
#5000
1!
1,
17
b0 =
b1 >
#6000
0"
0-
#9000
1"
1-
1;
03
04
05
0(
0)
0*
1<
#10000
0!
0,
#12000
0"
0-
#15000
1!
1"
1,
1-
18
b1 =
02
0'
19
b0 =
#18000
0"
0-
#20000
0#
0!
0.
0,
#21000
1"
1-
0:
#24000
0"
0-
#25000
1!
1,
07
#27000
1"
1-
0;
0<
#30000
0!
0"
0,
0-
#33000
1"
1-
#35000
1!
1,
08
09
#36000
0"
0-
#39000
1"
1-
#40000
0!
0,
#42000
0"
0-
#45000
1!
1"
1,
1-
b1 =
#48000
0"
0-
#50000
0!
0,
#51000
1"
1-
#54000
0"
0-
#55000
1!
1,
12
1'
#57000
1"
1-
#60000
0!
0"
0,
0-
#63000
1"
1-
#65000
1!
1,
#66000
0"
0-
#69000
1"
1-
#70000
0!
0,
#72000
0"
0-
#75000
1!
1"
1,
1-
#78000
0"
0-
#80000
0!
0,
#81000
1"
1-
#84000
0"
0-
#85000
1!
1,
#87000
1"
1-
#90000
0!
0"
0,
0-
#93000
1"
1-
#95000
1!
1,
#96000
0"
0-
#99000
1"
1-
#100000
0!
0,
#102000
0"
0-
#105000
1!
1"
1,
1-
#108000
0"
0-
#110000
0!
0,
#111000
1"
1-
#114000
0"
0-
#115000
1!
1,
#117000
1"
1-
#120000
1$
0!
0"
1/
0,
0-
b0 >
#123000
1"
1-
#125000
1!
1,
b0 =
#126000
0"
0-
#129000
1"
1-
#130000
0!
0,
#132000
0"
0-
#135000
1!
1"
1,
1-
02
0'
#138000
0"
0-
#140000
0!
0,
#141000
1"
1-
#144000
0"
0-
#145000
1!
1,
#147000
1"
1-
#150000
0!
0"
0,
0-
#153000
1"
1-
#155000
1!
1,
#156000
0"
0-
#159000
1"
1-
#160000
0!
0,
#162000
0"
0-
#165000
1!
1"
1,
1-
#168000
0"
0-
#170000
0$
0%
0!
0/
00
0,
b1 @
b1 >
#171000
1"
1-
b1 ?
b10 @
#174000
0"
0-
#175000
1!
1,
b1 =
#177000
1"
1-
b10 ?
13
1(
b11 @
#180000
0!
0"
0,
0-
#183000
1"
1-
b11 ?
03
14
0(
1)
b100 @
#185000
1!
1,
12
1'
#186000
0"
0-
#189000
1"
1-
b100 ?
04
15
0)
1*
#190000
0!
0,
#192000
0"
0-
#195000
1!
1"
1,
1-
05
0*
