qsim_dc/lfsr1/lfsr1.vcd
$date
	Wed Dec  4 13:05:33 2024
$end
$version
	ModelSim Version 2024.2
$end
$timescale
	1ps
$end

$scope module testbench $end

$scope module lfsr_0 $end
$var wire 1 ! seed [15] $end
$var wire 1 " seed [14] $end
$var wire 1 # seed [13] $end
$var wire 1 $ seed [12] $end
$var wire 1 % seed [11] $end
$var wire 1 & seed [10] $end
$var wire 1 ' seed [9] $end
$var wire 1 ( seed [8] $end
$var wire 1 ) seed [7] $end
$var wire 1 * seed [6] $end
$var wire 1 + seed [5] $end
$var wire 1 , seed [4] $end
$var wire 1 - seed [3] $end
$var wire 1 . seed [2] $end
$var wire 1 / seed [1] $end
$var wire 1 0 seed [0] $end
$var wire 1 1 lfsr_out [15] $end
$var wire 1 2 lfsr_out [14] $end
$var wire 1 3 lfsr_out [13] $end
$var wire 1 4 lfsr_out [12] $end
$var wire 1 5 lfsr_out [11] $end
$var wire 1 6 lfsr_out [10] $end
$var wire 1 7 lfsr_out [9] $end
$var wire 1 8 lfsr_out [8] $end
$var wire 1 9 lfsr_out [7] $end
$var wire 1 : lfsr_out [6] $end
$var wire 1 ; lfsr_out [5] $end
$var wire 1 < lfsr_out [4] $end
$var wire 1 = lfsr_out [3] $end
$var wire 1 > lfsr_out [2] $end
$var wire 1 ? lfsr_out [1] $end
$var wire 1 @ lfsr_out [0] $end
$var wire 1 A clk $end
$var wire 1 B resetn $end
$var wire 1 C N3 $end
$var wire 1 D N4 $end
$var wire 1 E N5 $end
$var wire 1 F N6 $end
$var wire 1 G N7 $end
$var wire 1 H N8 $end
$var wire 1 I N9 $end
$var wire 1 J N10 $end
$var wire 1 K N11 $end
$var wire 1 L N12 $end
$var wire 1 M N13 $end
$var wire 1 N N14 $end
$var wire 1 O N15 $end
$var wire 1 P N16 $end
$var wire 1 Q N17 $end
$var wire 1 R N18 $end
$var wire 1 S n50 $end
$var wire 1 T n60 $end
$var wire 1 U n70 $end
$var wire 1 V n80 $end
$var wire 1 W n90 $end
$var wire 1 X n100 $end
$var wire 1 Y n110 $end
$var wire 1 Z n120 $end
$var wire 1 [ n130 $end
$var wire 1 \ n140 $end
$var wire 1 ] n150 $end
$var wire 1 ^ n160 $end
$var wire 1 _ n170 $end
$var wire 1 ` n180 $end

$scope module lfsr_out_reg_1_ $end
$var wire 1 ? Q $end
$var wire 1 D D $end
$var wire 1 A CK $end
$var reg 1 a NOTIFIER $end
$var supply1 1 b xSN $end
$var supply1 1 c xRN $end
$var wire 1 d clk $end
$var wire 1 e n0 $end
$var wire 1 f flag $end
$upscope $end

$scope module lfsr_out_reg_2_ $end
$var wire 1 > Q $end
$var wire 1 E D $end
$var wire 1 A CK $end
$var reg 1 g NOTIFIER $end
$var supply1 1 h xSN $end
$var supply1 1 i xRN $end
$var wire 1 j clk $end
$var wire 1 k n0 $end
$var wire 1 l flag $end
$upscope $end

$scope module lfsr_out_reg_3_ $end
$var wire 1 = Q $end
$var wire 1 F D $end
$var wire 1 A CK $end
$var reg 1 m NOTIFIER $end
$var supply1 1 n xSN $end
$var supply1 1 o xRN $end
$var wire 1 p clk $end
$var wire 1 q n0 $end
$var wire 1 r flag $end
$upscope $end

$scope module lfsr_out_reg_4_ $end
$var wire 1 < Q $end
$var wire 1 G D $end
$var wire 1 A CK $end
$var reg 1 s NOTIFIER $end
$var supply1 1 t xSN $end
$var supply1 1 u xRN $end
$var wire 1 v clk $end
$var wire 1 w n0 $end
$var wire 1 x flag $end
$upscope $end

$scope module lfsr_out_reg_6_ $end
$var wire 1 : Q $end
$var wire 1 I D $end
$var wire 1 A CK $end
$var reg 1 y NOTIFIER $end
$var supply1 1 z xSN $end
$var supply1 1 { xRN $end
$var wire 1 | clk $end
$var wire 1 } n0 $end
$var wire 1 ~ flag $end
$upscope $end

$scope module lfsr_out_reg_7_ $end
$var wire 1 9 Q $end
$var wire 1 J D $end
$var wire 1 A CK $end
$var reg 1 !! NOTIFIER $end
$var supply1 1 "! xSN $end
$var supply1 1 #! xRN $end
$var wire 1 $! clk $end
$var wire 1 %! n0 $end
$var wire 1 &! flag $end
$upscope $end

$scope module lfsr_out_reg_8_ $end
$var wire 1 8 Q $end
$var wire 1 K D $end
$var wire 1 A CK $end
$var reg 1 '! NOTIFIER $end
$var supply1 1 (! xSN $end
$var supply1 1 )! xRN $end
$var wire 1 *! clk $end
$var wire 1 +! n0 $end
$var wire 1 ,! flag $end
$upscope $end

$scope module lfsr_out_reg_9_ $end
$var wire 1 7 Q $end
$var wire 1 L D $end
$var wire 1 A CK $end
$var reg 1 -! NOTIFIER $end
$var supply1 1 .! xSN $end
$var supply1 1 /! xRN $end
$var wire 1 0! clk $end
$var wire 1 1! n0 $end
$var wire 1 2! flag $end
$upscope $end

$scope module lfsr_out_reg_10_ $end
$var wire 1 6 Q $end
$var wire 1 M D $end
$var wire 1 A CK $end
$var reg 1 3! NOTIFIER $end
$var supply1 1 4! xSN $end
$var supply1 1 5! xRN $end
$var wire 1 6! clk $end
$var wire 1 7! n0 $end
$var wire 1 8! flag $end
$upscope $end

$scope module lfsr_out_reg_11_ $end
$var wire 1 5 Q $end
$var wire 1 N D $end
$var wire 1 A CK $end
$var reg 1 9! NOTIFIER $end
$var supply1 1 :! xSN $end
$var supply1 1 ;! xRN $end
$var wire 1 <! clk $end
$var wire 1 =! n0 $end
$var wire 1 >! flag $end
$upscope $end

$scope module lfsr_out_reg_13_ $end
$var wire 1 3 Q $end
$var wire 1 P D $end
$var wire 1 A CK $end
$var reg 1 ?! NOTIFIER $end
$var supply1 1 @! xSN $end
$var supply1 1 A! xRN $end
$var wire 1 B! clk $end
$var wire 1 C! n0 $end
$var wire 1 D! flag $end
$upscope $end

$scope module lfsr_out_reg_14_ $end
$var wire 1 2 Q $end
$var wire 1 Q D $end
$var wire 1 A CK $end
$var reg 1 E! NOTIFIER $end
$var supply1 1 F! xSN $end
$var supply1 1 G! xRN $end
$var wire 1 H! clk $end
$var wire 1 I! n0 $end
$var wire 1 J! flag $end
$upscope $end

$scope module lfsr_out_reg_15_ $end
$var wire 1 1 Q $end
$var wire 1 R D $end
$var wire 1 A CK $end
$var reg 1 K! NOTIFIER $end
$var supply1 1 L! xSN $end
$var supply1 1 M! xRN $end
$var wire 1 N! clk $end
$var wire 1 O! n0 $end
$var wire 1 P! flag $end
$upscope $end

$scope module lfsr_out_reg_12_ $end
$var wire 1 4 Q $end
$var wire 1 O D $end
$var wire 1 A CK $end
$var reg 1 Q! NOTIFIER $end
$var supply1 1 R! xSN $end
$var supply1 1 S! xRN $end
$var wire 1 T! clk $end
$var wire 1 U! n0 $end
$var wire 1 V! flag $end
$upscope $end

$scope module lfsr_out_reg_0_ $end
$var wire 1 @ Q $end
$var wire 1 C D $end
$var wire 1 A CK $end
$var reg 1 W! NOTIFIER $end
$var supply1 1 X! xSN $end
$var supply1 1 Y! xRN $end
$var wire 1 Z! clk $end
$var wire 1 [! n0 $end
$var wire 1 \! flag $end
$upscope $end

$scope module lfsr_out_reg_5_ $end
$var wire 1 ; Q $end
$var wire 1 H D $end
$var wire 1 A CK $end
$var reg 1 ]! NOTIFIER $end
$var supply1 1 ^! xSN $end
$var supply1 1 _! xRN $end
$var wire 1 `! clk $end
$var wire 1 a! n0 $end
$var wire 1 b! flag $end
$upscope $end

$scope module U23 $end
$var wire 1 Y Y $end
$var wire 1 U A $end
$upscope $end

$scope module U24 $end
$var wire 1 T Y $end
$var wire 1 V A $end
$upscope $end

$scope module U25 $end
$var wire 1 J Y $end
$var wire 1 Y A0 $end
$var wire 1 : A1 $end
$var wire 1 \ B0 $end
$var wire 1 ) B1 $end
$var wire 1 c! outA $end
$var wire 1 d! outB $end
$upscope $end

$scope module U26 $end
$var wire 1 Q Y $end
$var wire 1 X A0 $end
$var wire 1 3 A1 $end
$var wire 1 [ B0 $end
$var wire 1 " B1 $end
$var wire 1 e! outA $end
$var wire 1 f! outB $end
$upscope $end

$scope module U27 $end
$var wire 1 R Y $end
$var wire 1 Y A0 $end
$var wire 1 2 A1 $end
$var wire 1 \ B0 $end
$var wire 1 ! B1 $end
$var wire 1 g! outA $end
$var wire 1 h! outB $end
$upscope $end

$scope module U28 $end
$var wire 1 K Y $end
$var wire 1 T A0 $end
$var wire 1 9 A1 $end
$var wire 1 ] B0 $end
$var wire 1 ( B1 $end
$var wire 1 i! outA $end
$var wire 1 j! outB $end
$upscope $end

$scope module U29 $end
$var wire 1 L Y $end
$var wire 1 W A0 $end
$var wire 1 8 A1 $end
$var wire 1 Z B0 $end
$var wire 1 ' B1 $end
$var wire 1 k! outA $end
$var wire 1 l! outB $end
$upscope $end

$scope module U30 $end
$var wire 1 O Y $end
$var wire 1 S A0 $end
$var wire 1 5 A1 $end
$var wire 1 ] B0 $end
$var wire 1 $ B1 $end
$var wire 1 m! outA $end
$var wire 1 n! outB $end
$upscope $end

$scope module U31 $end
$var wire 1 P Y $end
$var wire 1 W A0 $end
$var wire 1 4 A1 $end
$var wire 1 Z B0 $end
$var wire 1 # B1 $end
$var wire 1 o! outA $end
$var wire 1 p! outB $end
$upscope $end

$scope module U32 $end
$var wire 1 M Y $end
$var wire 1 X A0 $end
$var wire 1 7 A1 $end
$var wire 1 [ B0 $end
$var wire 1 & B1 $end
$var wire 1 q! outA $end
$var wire 1 r! outB $end
$upscope $end

$scope module U33 $end
$var wire 1 E Y $end
$var wire 1 X A0 $end
$var wire 1 ? A1 $end
$var wire 1 [ B0 $end
$var wire 1 . B1 $end
$var wire 1 s! outA $end
$var wire 1 t! outB $end
$upscope $end

$scope module U34 $end
$var wire 1 H Y $end
$var wire 1 W A0 $end
$var wire 1 < A1 $end
$var wire 1 Z B0 $end
$var wire 1 + B1 $end
$var wire 1 u! outA $end
$var wire 1 v! outB $end
$upscope $end

$scope module U35 $end
$var wire 1 D Y $end
$var wire 1 W A0 $end
$var wire 1 @ A1 $end
$var wire 1 Z B0 $end
$var wire 1 / B1 $end
$var wire 1 w! outA $end
$var wire 1 x! outB $end
$upscope $end

$scope module U36 $end
$var wire 1 F Y $end
$var wire 1 Y A0 $end
$var wire 1 > A1 $end
$var wire 1 \ B0 $end
$var wire 1 - B1 $end
$var wire 1 y! outA $end
$var wire 1 z! outB $end
$upscope $end

$scope module U37 $end
$var wire 1 N Y $end
$var wire 1 Y A0 $end
$var wire 1 6 A1 $end
$var wire 1 \ B0 $end
$var wire 1 % B1 $end
$var wire 1 {! outA $end
$var wire 1 |! outB $end
$upscope $end

$scope module U38 $end
$var wire 1 G Y $end
$var wire 1 T A0 $end
$var wire 1 = A1 $end
$var wire 1 ] B0 $end
$var wire 1 , B1 $end
$var wire 1 }! outA $end
$var wire 1 ~! outB $end
$upscope $end

$scope module U39 $end
$var wire 1 S Y $end
$var wire 1 V A $end
$upscope $end

$scope module U40 $end
$var wire 1 W Y $end
$var wire 1 U A $end
$upscope $end

$scope module U41 $end
$var wire 1 X Y $end
$var wire 1 U A $end
$upscope $end

$scope module U42 $end
$var wire 1 V Y $end
$var wire 1 U A $end
$upscope $end

$scope module U43 $end
$var wire 1 U Y $end
$var wire 1 B A $end
$upscope $end

$scope module U44 $end
$var wire 1 Z Y $end
$var wire 1 T A $end
$upscope $end

$scope module U45 $end
$var wire 1 [ Y $end
$var wire 1 S A $end
$upscope $end

$scope module U46 $end
$var wire 1 \ Y $end
$var wire 1 T A $end
$upscope $end

$scope module U47 $end
$var wire 1 ] Y $end
$var wire 1 S A $end
$upscope $end

$scope module U48 $end
$var wire 1 _ Y $end
$var wire 1 1 A $end
$var wire 1 @ B $end
$upscope $end

$scope module U49 $end
$var wire 1 ^ Y $end
$var wire 1 4 A $end
$var wire 1 ; B $end
$upscope $end

$scope module U50 $end
$var wire 1 ` Y $end
$var wire 1 _ A $end
$var wire 1 ^ B $end
$upscope $end

$scope module U51 $end
$var wire 1 C Y $end
$var wire 1 S A0 $end
$var wire 1 ` A1 $end
$var wire 1 ] B0 $end
$var wire 1 0 B1 $end
$var wire 1 !" outA $end
$var wire 1 "" outB $end
$upscope $end

$scope module U52 $end
$var wire 1 I Y $end
$var wire 1 X A0 $end
$var wire 1 ; A1 $end
$var wire 1 [ B0 $end
$var wire 1 * B1 $end
$var wire 1 #" outA $end
$var wire 1 $" outB $end
$upscope $end
$upscope $end
$upscope $end
$enddefinitions $end
#0
$dumpvars
xa
xg
xm
xs
xy
x!!
x'!
x-!
x3!
x9!
x?!
xE!
xK!
xQ!
xW!
x]!
x@
x?
x>
x=
x<
x;
x:
x9
x8
x7
x6
x5
x4
x3
x2
x1
xC
xD
xE
xF
xG
xH
xI
xJ
xK
xL
xM
xN
xO
xP
xQ
xR
xS
xT
xU
xV
xW
xX
xY
xZ
x[
x\
x]
x^
x_
x`
1b
1c
0d
xe
1f
1h
1i
0j
xk
1l
1n
1o
0p
xq
1r
1t
1u
0v
xw
1x
1z
1{
0|
x}
1~
1"!
1#!
0$!
x%!
1&!
1(!
1)!
0*!
x+!
1,!
1.!
1/!
00!
x1!
12!
14!
15!
06!
x7!
18!
1:!
1;!
0<!
x=!
1>!
1@!
1A!
0B!
xC!
1D!
1F!
1G!
0H!
xI!
1J!
1L!
1M!
0N!
xO!
1P!
1R!
1S!
0T!
xU!
1V!
1X!
1Y!
0Z!
x[!
1\!
1^!
1_!
0`!
xa!
1b!
xc!
0d!
xe!
0f!
xg!
0h!
xi!
0j!
xk!
0l!
xm!
0n!
xo!
0p!
xq!
0r!
xs!
0t!
xu!
0v!
xw!
0x!
xy!
0z!
x{!
0|!
x}!
0~!
x!"
x""
x#"
0$"
10
0/
0.
0-
0,
0+
0*
0)
0(
0'
0&
0%
0$
0#
0"
0!
0B
0A
$end
#97
1U
#176
0Y
0{!
0y!
0g!
0c!
#201
0W
0X
0w!
0u!
0o!
0k!
0#"
0s!
0q!
0e!
#290
1V
#383
0T
0S
0}!
0i!
0!"
0m!
#463
1Z
1\
#464
1[
1]
1""
#559
0J
0R
0F
0N
#596
0Q
0M
0E
0L
0P
0H
0D
#598
0I
#737
1C
#774
0O
0K
0G
#5000
1A
1`!
1Z!
1T!
1N!
1H!
1B!
1<!
16!
10!
1*!
1$!
1|
1v
1p
1j
1d
0a!
1[!
0U!
0O!
0I!
0C!
0=!
07!
01!
0+!
0%!
0}
0w
0q
0k
0e
#5274
1@
#5726
0?
0>
0=
0<
0:
09
08
07
06
05
03
02
#5734
01
#5742
0;
#5743
04
#5919
1_
#5987
0^
#6234
1`
#10000
0A
0`!
0Z!
0T!
0N!
0H!
0B!
0<!
06!
00!
0*!
0$!
0|
0v
0p
0j
0d
1B
#10093
0U
#10174
1Y
#10216
1W
1X
1w!
#10315
0V
#10441
1T
1S
1!"
#10442
1D
#10522
0[
0]
0Z
0\
0""
#15000
1A
1`!
1Z!
1T!
1N!
1H!
1B!
1<!
16!
10!
1*!
1$!
1|
1v
1p
1j
1d
1e
#15626
1?
1s!
#15872
1E
#20000
0A
0`!
0Z!
0T!
0N!
0H!
0B!
0<!
06!
00!
0*!
0$!
0|
0v
0p
0j
0d
#25000
1A
1`!
1Z!
1T!
1N!
1H!
1B!
1<!
16!
10!
1*!
1$!
1|
1v
1p
1j
1d
1k
#25626
1>
1y!
#25872
1F
#30000
0A
0`!
0Z!
0T!
0N!
0H!
0B!
0<!
06!
00!
0*!
0$!
0|
0v
0p
0j
0d
#35000
1A
1`!
1Z!
1T!
1N!
1H!
1B!
1<!
16!
10!
1*!
1$!
1|
1v
1p
1j
1d
1q
#35626
1=
1}!
#35872
1G
#40000
0A
0`!
0Z!
0T!
0N!
0H!
0B!
0<!
06!
00!
0*!
0$!
0|
0v
0p
0j
0d
#45000
1A
1`!
1Z!
1T!
1N!
1H!
1B!
1<!
16!
10!
1*!
1$!
1|
1v
1p
1j
1d
1w
#45626
1<
1u!
#45872
1H
#50000
0A
0`!
0Z!
0T!
0N!
0H!
0B!
0<!
06!
00!
0*!
0$!
0|
0v
0p
0j
0d
#55000
1A
1`!
1Z!
1T!
1N!
1H!
1B!
1<!
16!
10!
1*!
1$!
1|
1v
1p
1j
1d
1a!
#55652
1;
1#"
#55909
1^
#55921
1I
#56156
0`
0!"
#56605
0C
#60000
0A
0`!
0Z!
0T!
0N!
0H!
0B!
0<!
06!
00!
0*!
0$!
0|
0v
0p
0j
0d
#65000
1A
1`!
1Z!
1T!
1N!
1H!
1B!
1<!
16!
10!
1*!
1$!
1|
1v
1p
1j
1d
0[!
1}
#65287
0@
0w!
#65510
0_
#65626
1:
1c!
#65690
1`
1!"
#65701
0D
#65872
1J
#65979
1C
#70000
0A
0`!
0Z!
0T!
0N!
0H!
0B!
0<!
06!
00!
0*!
0$!
0|
0v
0p
0j
0d
#75000
1A
1`!
1Z!
1T!
1N!
1H!
1B!
1<!
16!
10!
1*!
1$!
1|
1v
1p
1j
1d
1[!
1%!
0e
#75274
1@
1w!
#75484
1D
#75500
1_
#75626
19
1i!
#75726
0?
0s!
#75741
0`
0!"
#75872
1K
#76160
0E
#76190
0C
#80000
0A
0`!
0Z!
0T!
0N!
0H!
0B!
0<!
06!
00!
0*!
0$!
0|
0v
0p
0j
0d
#85000
1A
1`!
1Z!
1T!
1N!
1H!
1B!
1<!
16!
10!
1*!
1$!
1|
1v
1p
1j
1d
0[!
1+!
0k
1e
#85287
0@
0w!
#85510
0_
#85626
1?
18
1s!
1k!
#85690
1`
1!"
#85701
0D
#85726
0>
0y!
#85872
1L
1E
#85979
1C
#86160
0F
#90000
0A
0`!
0Z!
0T!
0N!
0H!
0B!
0<!
06!
00!
0*!
0$!
0|
0v
0p
0j
0d
#95000
1A
1`!
1Z!
1T!
1N!
1H!
1B!
1<!
16!
10!
1*!
1$!
1|
1v
1p
1j
1d
1[!
11!
0q
1k
0e
#95274
1@
1w!
#95484
1D
#95500
1_
#95626
1>
17
1y!
1q!
#95726
0?
0=
0s!
0}!
#95741
0`
0!"
#95872
1M
1F
#96160
0G
0E
#96190
0C
#100000
0A
0`!
0Z!
0T!
0N!
0H!
0B!
0<!
06!
00!
0*!
0$!
0|
0v
0p
0j
0d
#105000
1A
1`!
1Z!
1T!
1N!
1H!
1B!
1<!
16!
10!
1*!
1$!
1|
1v
1p
1j
1d
0[!
17!
0w
1q
0k
1e
#105287
0@
0w!
#105510
0_
#105626
1?
1=
16
1s!
1}!
1{!
#105690
1`
1!"
#105701
0D
#105726
0>
0<
0y!
0u!
#105872
1N
1G
1E
#105979
1C
#106160
0H
0F
#110000
0A
0`!
0Z!
0T!
0N!
0H!
0B!
0<!
06!
00!
0*!
0$!
0|
0v
0p
0j
0d
#115000
1A
1`!
1Z!
1T!
1N!
1H!
1B!
1<!
16!
10!
1*!
1$!
1|
1v
1p
1j
1d
0a!
1[!
1=!
1w
0q
1k
0e
#115274
1@
1w!
#115484
1D
#115500
1_
#115626
1>
1<
15
1y!
1u!
1m!
#115726
0?
0=
0s!
0}!
#115741
0`
0!"
#115742
0;
0#"
#115872
1O
1H
1F
#115995
0^
#116160
0G
0E
#116175
0I
#116190
0C
#116242
1`
1!"
#116531
1C
#120000
0A
0`!
0Z!
0T!
0N!
0H!
0B!
0<!
06!
00!
0*!
0$!
0|
0v
0p
0j
0d
#125000
1A
1`!
1Z!
1T!
1N!
1H!
1B!
1<!
16!
10!
1*!
1$!
1|
1v
1p
1j
1d
1a!
1U!
0}
0w
1q
0k
1e
#125626
1?
1=
1s!
1}!
#125652
1;
1#"
#125653
14
1o!
#125726
0>
0<
0:
0y!
0u!
0c!
#125872
1G
1E
#125915
1P
#125921
1I
#126160
0J
0H
0F
#130000
0A
0`!
0Z!
0T!
0N!
0H!
0B!
0<!
06!
00!
0*!
0$!
0|
0v
0p
0j
0d
#135000
1A
1`!
1Z!
1T!
1N!
1H!
1B!
1<!
16!
10!
1*!
1$!
1|
1v
1p
1j
1d
0a!
1C!
0%!
1}
1w
0q
1k
#135626
1>
1<
1:
13
1y!
1u!
1c!
1e!
#135726
0=
09
0}!
0i!
#135742
0;
0#"
#135872
1Q
1J
1H
1F
#135999
1^
#136160
0K
0G
#136175
0I
#136246
0`
0!"
#136695
0C
#140000
0A
0`!
0Z!
0T!
0N!
0H!
0B!
0<!
06!
00!
0*!
0$!
0|
0v
0p
0j
0d
#145000
1A
1`!
1Z!
1T!
1N!
1H!
1B!
1<!
16!
10!
1*!
1$!
1|
1v
1p
1j
1d
1a!
0[!
1I!
0+!
1%!
0}
0w
1q
#145287
0@
0w!
#145510
0_
#145626
1=
19
12
1}!
1i!
1g!
#145652
1;
1#"
#145690
1`
1!"
#145701
0D
#145726
0<
0:
08
0u!
0c!
0k!
#145872
1R
1K
1G
#145905
0^
#145921
1I
#145979
1C
#146152
0`
0!"
#146160
0L
0J
0H
#146601
0C
#150000
0A
0`!
0Z!
0T!
0N!
0H!
0B!
0<!
06!
00!
0*!
0$!
0|
0v
0p
0j
0d
#155000
1A
1`!
1Z!
1T!
1N!
1H!
1B!
1<!
16!
10!
1*!
1$!
1|
1v
1p
1j
1d
0a!
1O!
01!
1+!
0%!
1}
1w
0e
#155626
1<
1:
18
1u!
1c!
1k!
#155640
11
#155726
0?
09
07
0s!
0i!
0q!
#155742
0;
0#"
#155825
1_
#155872
1L
1J
1H
#155999
1^
#156160
0M
0K
0E
#156175
0I
#160000
0A
0`!
0Z!
0T!
0N!
0H!
0B!
0<!
06!
00!
0*!
0$!
0|
0v
0p
0j
0d
#165000
1A
1`!
1Z!
1T!
1N!
1H!
1B!
1<!
16!
10!
1*!
1$!
1|
1v
1p
1j
1d
1a!
07!
11!
0+!
1%!
0}
0k
#165626
19
17
1i!
1q!
#165652
1;
1#"
#165726
0>
0:
08
06
0y!
0c!
0k!
0{!
#165872
1M
1K
#165905
0^
#165921
1I
#166152
1`
1!"
#166160
0N
0L
0J
0F
#166441
1C
#170000
0A
0`!
0Z!
0T!
0N!
0H!
0B!
0<!
06!
00!
0*!
0$!
0|
0v
0p
0j
0d
#175000
1A
1`!
1Z!
1T!
1N!
1H!
1B!
1<!
16!
10!
1*!
1$!
1|
1v
1p
1j
1d
1[!
0=!
17!
01!
1+!
0%!
1}
0q
#175274
1@
1w!
#175484
1D
#175497
0_
#175626
1:
18
16
1c!
1k!
1{!
#175726
0=
09
07
05
0}!
0i!
0q!
0m!
#175738
0`
0!"
#175872
1N
1L
1J
#176160
0O
0M
0K
0G
#176187
0C
#180000
0A
0`!
0Z!
0T!
0N!
0H!
0B!
0<!
06!
00!
0*!
0$!
0|
0v
0p
0j
0d
#185000
1A
1`!
1Z!
1T!
1N!
1H!
1B!
1<!
16!
10!
1*!
1$!
1|
1v
1p
1j
1d
0[!
0U!
1=!
07!
11!
0+!
1%!
0w
1e
#185287
0@
0w!
#185513
1_
#185626
1?
19
17
15
1s!
1i!
1q!
1m!
#185693
1`
1!"
#185701
0D
#185726
0<
08
06
0u!
0k!
0{!
#185743
04
0o!
#185872
1O
1M
1K
1E
#185930
1^
#185982
1C
#186160
0N
0L
0H
#186177
0`
0!"
#186184
0P
#186626
0C
#190000
0A
0`!
0Z!
0T!
0N!
0H!
0B!
0<!
06!
00!
0*!
0$!
0|
0v
0p
0j
0d
#195000
1A
1`!
1Z!
1T!
1N!
1H!
1B!
1<!
16!
10!
1*!
1$!
1|
1v
1p
1j
1d
0a!
1U!
0C!
0=!
17!
01!
1+!
1k
0e
#195626
1>
18
16
1y!
1k!
1{!
#195653
14
1o!
#195726
0?
07
05
03
0s!
0q!
0m!
0e!
#195742
0;
0#"
#195872
1N
1L
1F
#195915
1P
#196160
0Q
0O
0M
0E
#196175
0I
#200000
0A
0`!
0Z!
0T!
0N!
0H!
0B!
0<!
06!
00!
0*!
0$!
0|
0v
0p
0j
0d
#205000
1A
1`!
1Z!
1T!
1N!
1H!
1B!
1<!
16!
10!
1*!
1$!
1|
1v
1p
1j
1d
0U!
0I!
1C!
1=!
07!
11!
0}
1q
0k
#205626
1=
17
15
13
1}!
1q!
1m!
1e!
#205726
0>
0:
06
02
0y!
0c!
0{!
0g!
#205743
04
0o!
#205872
1Q
1O
1M
1G
#205987
0^
#206160
0R
0N
0J
0F
#206184
0P
#206234
1`
1!"
#206523
1C
#210000
0A
0`!
0Z!
0T!
0N!
0H!
0B!
0<!
06!
00!
0*!
0$!
0|
0v
0p
0j
0d
#215000
1A
1`!
1Z!
1T!
1N!
1H!
1B!
1<!
16!
10!
1*!
1$!
1|
1v
1p
1j
1d
1[!
1U!
0O!
1I!
0C!
0=!
17!
0%!
1w
0q
#215274
1@
1w!
#215484
1D
#215497
0_
#215626
1<
16
12
1u!
1{!
1g!
#215653
14
1o!
#215726
0=
09
05
03
0}!
0i!
0m!
0e!
#215734
01
#215738
0`
0!"
#215840
1^
#215872
1R
1N
1H
#215915
1P
#215919
1_
#216160
0Q
0O
0K
0G
#216187
0C
#220000
0A
0`!
0Z!
0T!
0N!
0H!
0B!
0<!
06!
00!
0*!
0$!
0|
0v
0p
0j
0d
#225000
1A
1`!
1Z!
1T!
1N!
1H!
1B!
1<!
16!
10!
1*!
1$!
1|
1v
1p
1j
1d
1a!
0[!
0U!
1O!
0I!
1C!
1=!
0+!
0w
1e
#225287
0@
0w!
#225510
0_
#225626
1?
15
13
1s!
1m!
1e!
#225640
11
#225652
1;
1#"
#225690
1`
1!"
#225701
0D
#225726
0<
08
02
0u!
0k!
0g!
#225743
04
0o!
#225825
1_
#225872
1Q
1O
1E
#225921
1I
#225979
1C
#226066
0`
0!"
#226160
0R
0L
0H
#226184
0P
#226515
0C
#230000
0A
0`!
0Z!
0T!
0N!
0H!
0B!
0<!
06!
00!
0*!
0$!
0|
0v
0p
0j
0d
#235000
1A
1`!
1Z!
1T!
1N!
1H!
1B!
1<!
16!
10!
1*!
1$!
1|
1v
1p
1j
1d
0a!
1U!
0O!
1I!
0C!
01!
1}
1k
0e
#235626
1>
1:
12
1y!
1c!
1g!
#235653
14
1o!
#235726
0?
07
03
0s!
0q!
0e!
#235734
01
#235742
0;
0#"
#235872
1R
1J
1F
#235915
1P
#235975
0_
#236155
1`
1!"
#236160
0Q
0M
0E
#236175
0I
#236444
1C
#240000
0A
0`!
0Z!
0T!
0N!
0H!
0B!
0<!
06!
00!
0*!
0$!
0|
0v
0p
0j
0d
#245000
1A
1`!
1Z!
1T!
1N!
1H!
1B!
1<!
16!
10!
1*!
1$!
1|
1v
1p
1j
1d
1[!
1O!
0I!
1C!
07!
1%!
0}
1q
0k
#245274
1@
1w!
#245484
1D
#245500
1_
#245626
1=
19
13
1}!
1i!
1e!
#245640
11
#245726
0>
0:
06
02
0y!
0c!
0{!
0g!
#245741
0`
0!"
#245872
1Q
1K
1G
#245881
0_
#246061
1`
1!"
#246160
0R
0N
0J
0F
#250000
0A
0`!
0Z!
0T!
0N!
0H!
0B!
0<!
06!
00!
0*!
0$!
0|
0v
0p
0j
0d
#255000
1A
1`!
1Z!
1T!
1N!
1H!
1B!
1<!
16!
10!
1*!
1$!
1|
1v
1p
1j
1d
0O!
1I!
0=!
1+!
0%!
1w
0q
1e
#255626
1?
1<
18
12
1s!
1u!
1k!
1g!
#255726
0=
09
05
0}!
0i!
0m!
#255734
01
#255872
1R
1L
1H
1E
#255919
1_
#256160
0`
0O
0K
0G
0!"
#256609
0C
#260000
0A
0`!
0Z!
0T!
0N!
0H!
0B!
0<!
06!
00!
0*!
0$!
0|
0v
0p
0j
0d
#265000
1A
1`!
1Z!
1T!
1N!
1H!
1B!
1<!
16!
10!
1*!
1$!
1|
1v
1p
1j
1d
1a!
0[!
0U!
1O!
11!
0+!
0w
1k
#265287
0@
0w!
#265510
0_
#265626
1>
17
1y!
1q!
#265640
11
#265652
1;
1#"
#265690
1`
1!"
#265701
0D
#265726
0<
08
0u!
0k!
#265743
04
0o!
#265825
1_
#265872
1M
1F
#265921
1I
#265979
1C
#266066
0`
0!"
#266160
0L
0H
#266184
0P
#266515
0C
#270000
0A
0`!
0Z!
0T!
0N!
0H!
0B!
0<!
06!
00!
0*!
0$!
0|
0v
0p
0j
0d
#275000
1A
1`!
1Z!
1T!
1N!
1H!
1B!
1<!
16!
10!
1*!
1$!
1|
1v
1p
1j
1d
0a!
0C!
17!
01!
1}
1q
0e
#275626
1=
1:
16
1}!
1c!
1{!
#275726
0?
07
03
0s!
0q!
0e!
#275742
0;
0#"
#275872
1N
1J
1G
#275995
0^
#276160
0Q
0M
0E
#276175
0I
#276242
1`
1!"
#276531
1C
#280000
0A
0`!
0Z!
0T!
0N!
0H!
0B!
0<!
06!
00!
0*!
0$!
0|
0v
0p
0j
0d
#285000
1A
1`!
1Z!
1T!
1N!
1H!
1B!
1<!
16!
10!
1*!
1$!
1|
1v
1p
1j
1d
1[!
0I!
1=!
07!
1%!
0}
1w
0k
#285274
1@
1w!
#285484
1D
#285497
0_
#285626
1<
19
15
1u!
1i!
1m!
#285726
0>
0:
06
02
0y!
0c!
0{!
0g!
#285738
0`
0!"
#285872
1O
1K
1H
#286160
0R
0N
0J
0F
#286187
0C
#290000
0A
0`!
0Z!
0T!
0N!
0H!
0B!
0<!
06!
00!
0*!
0$!
0|
0v
0p
0j
0d
#295000
1A
1`!
1Z!
1T!
1N!
1H!
1B!
1<!
16!
10!
1*!
1$!
1|
1v
1p
1j
1d
1a!
0[!
1U!
0O!
0=!
1+!
0%!
0q
1e
#295287
0@
0w!
#295513
1_
#295626
1?
18
1s!
1k!
#295652
1;
1#"
#295653
14
1o!
#295693
1`
1!"
#295701
0D
#295726
0=
09
05
0}!
0i!
0m!
#295734
01
#295872
1L
1E
#295915
1P
#295921
1I
#295975
0_
#295982
1C
#296160
0O
0K
0G
#296216
0`
0!"
#296665
0C
